{
  "test": {
    "driver": "mysql",
    "host": { "ENV": "DB_HOST", "default": "localhost" },
    "port": { "ENV": "DB_PORT", "default": 3306 },
    "database": { "ENV": "DB_NAME" },
    "user": { "ENV": "DB_USER" },
    "password": { "ENV": "DB_PASS" }
  },
  "development": {
    "driver": "mysql",
    "host": { "ENV": "DB_HOST", "default": "localhost" },
    "port": { "ENV": "DB_PORT", "default": 3306 },
    "database": { "ENV": "DB_NAME" },
    "user": { "ENV": "DB_USER" },
    "password": { "ENV": "DB_PASS" }
  },
  "production": {
    "driver": "mysql",
    "host": { "ENV": "DB_HOST" },
    "port": { "ENV": "DB_PORT", "default": 3306 },
    "database": { "ENV": "DB_NAME" },
    "user": { "ENV": "DB_USER" },
    "password": { "ENV": "DB_PASS" }
  }
}